<?xml version="1.0" encoding="utf-8" ?>
<svg xmlns="http://www.w3.org/2000/svg" xmlns:ev="http://www.w3.org/2001/xml-events" xmlns:ifc="http://www.ifcopenshell.org/ns" xmlns:xlink="http://www.w3.org/1999/xlink" baseProfile="full" data-scale="1:5" height="211.28052759170535mm" id="root" version="1.1" viewBox="0 0 380.0009489059448 211.28052759170535" width="380.0009489059448mm">
  <defs/>
  <text dominant-baseline="baseline" style="font-size: 0;" text-anchor="start" transform="rotate(0.0, 324.145263671875, 154.63865661621094)">
    <tspan class="GlobalId-1SKfiMHdP5AgELPg_wCiuA IfcAnnotation PredefinedType-TEXT" dy="0em" x="324.145263671875" y="154.63865661621094">EXTERIOR</tspan>
  </text>
  <path class="GlobalId-3vFUPbhq92OQEoMVHU8tTe IfcAnnotation PredefinedType-TEXTLEADER" d="M 98.89614582061768 24.35062670707704 L 89.4275426864624 24.35062670707704 L 89.4275426864624 33.04456019401552"/>
  <text dominant-baseline="baseline" style="font-size: 0;" text-anchor="start" transform="rotate(0.0, 98.89614868164062, 24.35062599182129)">
    <tspan class="GlobalId-3vFUPbhq92OQEoMVHU8tTe IfcAnnotation PredefinedType-TEXTLEADER" dy="0em" x="98.89614868164062" y="24.35062599182129">SOME SHEET ROOF OR SOMETHING</tspan>
  </text>
  <path class="GlobalId-2Vthap2Mz9NQ73AX3zVjAU IfcAnnotation PredefinedType-TEXTLEADER" d="M 310.207736492157 36.193640470504775 L 300.7391333580017 36.193640470504775 L 282.20614194869995 61.72993922233583"/>
  <text dominant-baseline="baseline" style="font-size: 0;" text-anchor="start" transform="rotate(0.0, 310.207763671875, 36.19363784790039)">
    <tspan class="GlobalId-2Vthap2Mz9NQ73AX3zVjAU IfcAnnotation PredefinedType-TEXTLEADER" dy="0em" x="310.207763671875" y="36.19363784790039">FLASHING</tspan>
  </text>
  <line class="GlobalId-27JQKzn6L55wP8VinZlEA3 IfcAnnotation PredefinedType-BACKGROUND" x1="46.463871002197266" x2="242.390869140625" y1="73.52035522460938" y2="90.66177368164062"/>
  <line class="GlobalId-27JQKzn6L55wP8VinZlEA3 IfcAnnotation PredefinedType-BACKGROUND" x1="43.32625961303711" x2="242.390869140625" y1="109.38335418701172" y2="126.79926300048828"/>
  <line class="GlobalId-27JQKzn6L55wP8VinZlEA3 IfcAnnotation PredefinedType-BACKGROUND" x1="282.7995300292969" x2="282.7995300292969" y1="99.8069076538086" y2="105.80693817138672"/>
  <line class="GlobalId-27JQKzn6L55wP8VinZlEA3 IfcAnnotation PredefinedType-BACKGROUND" x1="308.799560546875" x2="308.799560546875" y1="99.8069076538086" y2="105.80693817138672"/>
  <line class="GlobalId-27JQKzn6L55wP8VinZlEA3 IfcAnnotation PredefinedType-BACKGROUND" x1="280.7995300292969" x2="310.799560546875" y1="105.80693817138672" y2="105.80693817138672"/>
  <line class="GlobalId-27JQKzn6L55wP8VinZlEA3 IfcAnnotation PredefinedType-BACKGROUND" x1="310.799560546875" x2="310.799560546875" y1="105.80693817138672" y2="184.6379852294922"/>
  <line class="GlobalId-27JQKzn6L55wP8VinZlEA3 IfcAnnotation PredefinedType-BACKGROUND" x1="280.7995300292969" x2="280.7995300292969" y1="184.6379852294922" y2="105.80693817138672"/>
  <line class="GlobalId-27JQKzn6L55wP8VinZlEA3 IfcAnnotation PredefinedType-BACKGROUND" x1="269.390869140625" x2="269.390869140625" y1="98.80691528320312" y2="118.80692291259766"/>
  <line class="GlobalId-27JQKzn6L55wP8VinZlEA3 IfcAnnotation PredefinedType-BACKGROUND" x1="273.3908996582031" x2="273.3908996582031" y1="98.80691528320312" y2="118.80692291259766"/>
  <line class="GlobalId-27JQKzn6L55wP8VinZlEA3 IfcAnnotation PredefinedType-BACKGROUND" x1="269.390869140625" x2="273.3908996582031" y1="118.80692291259766" y2="118.80692291259766"/>
  <line class="GlobalId-27JQKzn6L55wP8VinZlEA3 IfcAnnotation PredefinedType-BACKGROUND" x1="273.3908996582031" x2="269.390869140625" y1="98.80691528320312" y2="98.80691528320312"/>
  <line class="GlobalId-27JQKzn6L55wP8VinZlEA3 IfcAnnotation PredefinedType-BACKGROUND" x1="269.390869140625" x2="273.3908996582031" y1="98.80691528320312" y2="118.80692291259766"/>
  <line class="GlobalId-27JQKzn6L55wP8VinZlEA3 IfcAnnotation PredefinedType-BACKGROUND" x1="269.390869140625" x2="273.3908996582031" y1="118.80692291259766" y2="98.80691528320312"/>
  <line class="GlobalId-27JQKzn6L55wP8VinZlEA3 IfcAnnotation PredefinedType-BACKGROUND" x1="271.35968017578125" x2="269.6165466308594" y1="61.61344528198242" y2="81.53734588623047"/>
  <line class="GlobalId-27JQKzn6L55wP8VinZlEA3 IfcAnnotation PredefinedType-BACKGROUND" x1="273.3908996582031" x2="273.3908996582031" y1="61.61344528198242" y2="81.53734588623047"/>
  <line class="GlobalId-27JQKzn6L55wP8VinZlEA3 IfcAnnotation PredefinedType-BACKGROUND" x1="269.6165466308594" x2="273.3908996582031" y1="81.53734588623047" y2="81.53734588623047"/>
  <line class="GlobalId-27JQKzn6L55wP8VinZlEA3 IfcAnnotation PredefinedType-BACKGROUND" x1="273.3908996582031" x2="271.35968017578125" y1="61.61344528198242" y2="61.61344528198242"/>
  <line class="GlobalId-27JQKzn6L55wP8VinZlEA3 IfcAnnotation PredefinedType-BACKGROUND" x1="271.35968017578125" x2="273.3908996582031" y1="61.61344528198242" y2="81.53734588623047"/>
  <line class="GlobalId-27JQKzn6L55wP8VinZlEA3 IfcAnnotation PredefinedType-BACKGROUND" x1="269.6165466308594" x2="273.3908996582031" y1="81.53734588623047" y2="61.61344528198242"/>
  <line class="GlobalId-27JQKzn6L55wP8VinZlEA3 IfcAnnotation PredefinedType-BACKGROUND" x1="244.390869140625" x2="244.390869140625" y1="184.6379852294922" y2="126.80691528320312"/>
  <line class="GlobalId-27JQKzn6L55wP8VinZlEA3 IfcAnnotation PredefinedType-BACKGROUND" x1="269.390869140625" x2="269.390869140625" y1="184.6379852294922" y2="126.80691528320312"/>
  <line class="GlobalId-27JQKzn6L55wP8VinZlEA3 IfcAnnotation PredefinedType-BACKGROUND" x1="232.39089965820312" x2="236.39089965820312" y1="103.80691528320312" y2="103.80691528320312"/>
  <line class="GlobalId-27JQKzn6L55wP8VinZlEA3 IfcAnnotation PredefinedType-BACKGROUND" x1="232.39089965820312" x2="236.39089965820312" y1="113.80693054199219" y2="113.80693054199219"/>
  <line class="GlobalId-27JQKzn6L55wP8VinZlEA3 IfcAnnotation PredefinedType-BACKGROUND" x1="234.39089965820312" x2="234.39089965820312" y1="111.80693054199219" y2="115.80692291259766"/>
  <line class="GlobalId-27JQKzn6L55wP8VinZlEA3 IfcAnnotation PredefinedType-BACKGROUND" x1="234.39089965820312" x2="234.39089965820312" y1="101.80691528320312" y2="105.8069076538086"/>
  <line class="GlobalId-2ONeipjPr1cgcqGTSPZ8D8 IfcAnnotation PredefinedType-THICK" x1="75.3635025024414" x2="65.40155029296875" y1="-79.83255767822266" y2="-79.83255767822266"/>
  <line class="GlobalId-2ONeipjPr1cgcqGTSPZ8D8 IfcAnnotation PredefinedType-THICK" x1="282.2061462402344" x2="260.9127502441406" y1="-79.83255767822266" y2="-79.83255767822266"/>
  <line class="GlobalId-2ONeipjPr1cgcqGTSPZ8D8 IfcAnnotation PredefinedType-THICK" x1="260.9127502441406" x2="255.12767028808594" y1="-79.83255767822266" y2="-79.83255767822266"/>
  <line class="GlobalId-2ONeipjPr1cgcqGTSPZ8D8 IfcAnnotation PredefinedType-THICK" x1="280.7919616699219" x2="282.2061462402344" y1="-79.83255767822266" y2="-79.83255767822266"/>
  <line class="GlobalId-2ONeipjPr1cgcqGTSPZ8D8 IfcAnnotation PredefinedType-THICK" x1="194.9068603515625" x2="184.94493103027344" y1="-79.83255767822266" y2="-79.83255767822266"/>
  <line class="GlobalId-3n5CfHvRn4m9gCp7nO70am IfcAnnotation PredefinedType-MISC" x1="242.390869140625" x2="43.15195083618164" y1="128.80691528320312" y2="111.37574768066406"/>
  <line class="GlobalId-3n5CfHvRn4m9gCp7nO70am IfcAnnotation PredefinedType-MISC" x1="71.45631408691406" x2="73.19942474365234" y1="73.69926452636719" y2="53.77536392211914"/>
  <line class="GlobalId-3n5CfHvRn4m9gCp7nO70am IfcAnnotation PredefinedType-MISC" x1="72.45250701904297" x2="74.19562530517578" y1="73.78643035888672" y2="53.86252975463867"/>
  <line class="GlobalId-3n5CfHvRn4m9gCp7nO70am IfcAnnotation PredefinedType-MISC" x1="73.19942474365234" x2="74.19562530517578" y1="53.77536392211914" y2="53.86252975463867"/>
  <line class="GlobalId-3n5CfHvRn4m9gCp7nO70am IfcAnnotation PredefinedType-MISC" x1="72.45250701904297" x2="71.45631408691406" y1="73.78643035888672" y2="73.69926452636719"/>
  <line class="GlobalId-3n5CfHvRn4m9gCp7nO70am IfcAnnotation PredefinedType-MISC" x1="46.638179779052734" x2="242.390869140625" y1="71.52796173095703" y2="88.65412139892578"/>
  <line class="GlobalId-3n5CfHvRn4m9gCp7nO70am IfcAnnotation PredefinedType-MISC" x1="282.2933349609375" x2="55.49190139770508" y1="58.01523208618164" y2="38.17267990112305"/>
  <line class="GlobalId-3n5CfHvRn4m9gCp7nO70am IfcAnnotation PredefinedType-MISC" x1="55.49190139770508" x2="56.189144134521484" y1="38.17267990112305" y2="30.203109741210938"/>
  <line class="GlobalId-3n5CfHvRn4m9gCp7nO70am IfcAnnotation PredefinedType-MISC" x1="288.9677429199219" x2="287.9218444824219" y1="50.56861114501953" y2="62.52294158935547"/>
  <line class="GlobalId-3n5CfHvRn4m9gCp7nO70am IfcAnnotation PredefinedType-MISC" x1="56.189144134521484" x2="288.9677429199219" y1="30.203109741210938" y2="50.56861114501953"/>
  <line class="GlobalId-3n5CfHvRn4m9gCp7nO70am IfcAnnotation PredefinedType-MISC" x1="287.9218444824219" x2="282.2933349609375" y1="62.52294158935547" y2="58.01523208618164"/>
  <line class="GlobalId-3n5CfHvRn4m9gCp7nO70am IfcAnnotation PredefinedType-MISC" x1="242.390869140625" x2="242.390869140625" y1="118.80692291259766" y2="128.80691528320312"/>
  <line class="GlobalId-3n5CfHvRn4m9gCp7nO70am IfcAnnotation PredefinedType-MISC" x1="236.41371154785156" x2="228.4441680908203" y1="88.13117218017578" y2="87.4339370727539"/>
  <line class="GlobalId-3n5CfHvRn4m9gCp7nO70am IfcAnnotation PredefinedType-MISC" x1="237.4595947265625" x2="230.18727111816406" y1="76.17684173583984" y2="67.51004028320312"/>
  <line class="GlobalId-3n5CfHvRn4m9gCp7nO70am IfcAnnotation PredefinedType-MISC" x1="228.4441680908203" x2="230.18727111816406" y1="87.4339370727539" y2="67.51004028320312"/>
  <line class="GlobalId-3n5CfHvRn4m9gCp7nO70am IfcAnnotation PredefinedType-MISC" x1="237.4595947265625" x2="236.41371154785156" y1="76.17684173583984" y2="88.13117218017578"/>
  <line class="GlobalId-3n5CfHvRn4m9gCp7nO70am IfcAnnotation PredefinedType-MISC" x1="259.8757629394531" x2="260.572998046875" y1="78.13797760009766" y2="70.16845703125"/>
  <line class="GlobalId-3n5CfHvRn4m9gCp7nO70am IfcAnnotation PredefinedType-MISC" x1="230.18727111816406" x2="260.572998046875" y1="67.51004028320312" y2="70.16845703125"/>
  <line class="GlobalId-3n5CfHvRn4m9gCp7nO70am IfcAnnotation PredefinedType-MISC" x1="259.8757629394531" x2="237.4595947265625" y1="78.13797760009766" y2="76.17684173583984"/>
  <line class="GlobalId-3n5CfHvRn4m9gCp7nO70am IfcAnnotation PredefinedType-MISC" x1="190.9996795654297" x2="192.7427978515625" y1="84.15797424316406" y2="64.23406982421875"/>
  <line class="GlobalId-3n5CfHvRn4m9gCp7nO70am IfcAnnotation PredefinedType-MISC" x1="191.99586486816406" x2="193.73899841308594" y1="84.2451171875" y2="64.32121276855469"/>
  <line class="GlobalId-3n5CfHvRn4m9gCp7nO70am IfcAnnotation PredefinedType-MISC" x1="192.7427978515625" x2="193.73899841308594" y1="64.23406982421875" y2="64.32121276855469"/>
  <line class="GlobalId-3n5CfHvRn4m9gCp7nO70am IfcAnnotation PredefinedType-MISC" x1="191.99586486816406" x2="190.9996795654297" y1="84.2451171875" y2="84.15797424316406"/>
  <line class="GlobalId-3n5CfHvRn4m9gCp7nO70am IfcAnnotation PredefinedType-MISC" x1="244.390869140625" x2="244.390869140625" y1="98.80691528320312" y2="118.80692291259766"/>
  <line class="GlobalId-3n5CfHvRn4m9gCp7nO70am IfcAnnotation PredefinedType-MISC" x1="228.39088439941406" x2="228.39088439941406" y1="98.80691528320312" y2="118.80692291259766"/>
  <line class="GlobalId-3n5CfHvRn4m9gCp7nO70am IfcAnnotation PredefinedType-MISC" x1="244.390869140625" x2="228.39088439941406" y1="118.80692291259766" y2="118.80692291259766"/>
  <line class="GlobalId-3n5CfHvRn4m9gCp7nO70am IfcAnnotation PredefinedType-MISC" x1="228.39088439941406" x2="244.390869140625" y1="98.80691528320312" y2="98.80691528320312"/>
  <line class="GlobalId-3n5CfHvRn4m9gCp7nO70am IfcAnnotation PredefinedType-MISC" x1="243.39089965820312" x2="243.39089965820312" y1="118.80692291259766" y2="98.80691528320312"/>
  <line class="GlobalId-3n5CfHvRn4m9gCp7nO70am IfcAnnotation PredefinedType-MISC" x1="242.390869140625" x2="242.390869140625" y1="98.80691528320312" y2="88.65412139892578"/>
  <line class="GlobalId-3n5CfHvRn4m9gCp7nO70am IfcAnnotation PredefinedType-MISC" x1="229.04188537597656" x2="230.73269653320312" y1="87.4862289428711" y2="68.16006469726562"/>
  <line class="GlobalId-3n5CfHvRn4m9gCp7nO70am IfcAnnotation PredefinedType-MISC" x1="230.73269653320312" x2="260.520751953125" y1="68.16006469726562" y2="70.76616668701172"/>
  <line class="GlobalId-3xVw80hi1FKv7$qswBecFH IfcAnnotation PredefinedType-HIDDENLINE" x1="56.154273986816406" x2="288.9328918457031" y1="30.60160255432129" y2="50.96710205078125"/>
  <line class="GlobalId-3xVw80hi1FKv7$qswBecFH IfcAnnotation PredefinedType-HIDDENLINE" x1="287.95672607421875" x2="282.32818603515625" y1="62.124473571777344" y2="57.616764068603516"/>
  <line class="GlobalId-3xVw80hi1FKv7$qswBecFH IfcAnnotation PredefinedType-HIDDENLINE" x1="282.7995300292969" x2="282.7995300292969" y1="105.80693817138672" y2="109.80693054199219"/>
  <line class="GlobalId-3xVw80hi1FKv7$qswBecFH IfcAnnotation PredefinedType-HIDDENLINE" x1="308.799560546875" x2="308.799560546875" y1="105.80693817138672" y2="109.80693054199219"/>
  <line class="GlobalId-3xVw80hi1FKv7$qswBecFH IfcAnnotation PredefinedType-HIDDENLINE" x1="282.7995300292969" x2="308.799560546875" y1="109.80693054199219" y2="109.80693054199219"/>
  <line class="GlobalId-3xVw80hi1FKv7$qswBecFH IfcAnnotation PredefinedType-HIDDENLINE" x1="282.32818603515625" x2="55.526756286621094" y1="57.616764068603516" y2="37.77418899536133"/>
  <line class="GlobalId-3xVw80hi1FKv7$qswBecFH IfcAnnotation PredefinedType-HIDDENLINE" x1="75.29377746582031" x2="65.33182525634766" y1="41.31045913696289" y2="40.43889617919922"/>
  <line class="GlobalId-3xVw80hi1FKv7$qswBecFH IfcAnnotation PredefinedType-HIDDENLINE" x1="194.83714294433594" x2="184.8751983642578" y1="51.769168853759766" y2="50.897605895996094"/>
  <line class="GlobalId-3xVw80hi1FKv7$qswBecFH IfcAnnotation PredefinedType-HIDDENLINE" x1="75.29377746582031" x2="84.01720428466797" y1="41.31045913696289" y2="44.51533126831055"/>
  <line class="GlobalId-3xVw80hi1FKv7$qswBecFH IfcAnnotation PredefinedType-HIDDENLINE" x1="84.01720428466797" x2="92.88475799560547" y1="44.51533126831055" y2="47.296695709228516"/>
  <line class="GlobalId-3xVw80hi1FKv7$qswBecFH IfcAnnotation PredefinedType-HIDDENLINE" x1="92.88475799560547" x2="101.8758773803711" y1="47.296695709228516" y2="49.648075103759766"/>
  <line class="GlobalId-3xVw80hi1FKv7$qswBecFH IfcAnnotation PredefinedType-HIDDENLINE" x1="101.8758773803711" x2="110.96973419189453" y1="49.648075103759766" y2="51.56407928466797"/>
  <line class="GlobalId-3xVw80hi1FKv7$qswBecFH IfcAnnotation PredefinedType-HIDDENLINE" x1="110.96973419189453" x2="120.145263671875" y1="51.56407928466797" y2="53.040225982666016"/>
  <line class="GlobalId-3xVw80hi1FKv7$qswBecFH IfcAnnotation PredefinedType-HIDDENLINE" x1="120.145263671875" x2="129.38121032714844" y1="53.040225982666016" y2="54.07310104370117"/>
  <line class="GlobalId-3xVw80hi1FKv7$qswBecFH IfcAnnotation PredefinedType-HIDDENLINE" x1="129.38121032714844" x2="138.65614318847656" y1="54.07310104370117" y2="54.660301208496094"/>
  <line class="GlobalId-3xVw80hi1FKv7$qswBecFH IfcAnnotation PredefinedType-HIDDENLINE" x1="138.65614318847656" x2="147.94859313964844" y1="54.660301208496094" y2="54.80049133300781"/>
  <line class="GlobalId-3xVw80hi1FKv7$qswBecFH IfcAnnotation PredefinedType-HIDDENLINE" x1="147.94859313964844" x2="157.2370147705078" y1="54.80049133300781" y2="54.49333953857422"/>
  <line class="GlobalId-3xVw80hi1FKv7$qswBecFH IfcAnnotation PredefinedType-HIDDENLINE" x1="157.2370147705078" x2="166.49990844726562" y1="54.49333953857422" y2="53.73955535888672"/>
  <line class="GlobalId-3xVw80hi1FKv7$qswBecFH IfcAnnotation PredefinedType-HIDDENLINE" x1="166.49990844726562" x2="175.7157745361328" y1="53.73955535888672" y2="52.540855407714844"/>
  <line class="GlobalId-3xVw80hi1FKv7$qswBecFH IfcAnnotation PredefinedType-HIDDENLINE" x1="184.8751983642578" x2="175.7157745361328" y1="50.897605895996094" y2="52.540855407714844"/>
  <line class="GlobalId-3xVw80hi1FKv7$qswBecFH IfcAnnotation PredefinedType-HIDDENLINE" x1="271.6331481933594" x2="261.6711730957031" y1="58.48796844482422" y2="57.61640548706055"/>
  <line class="GlobalId-3xVw80hi1FKv7$qswBecFH IfcAnnotation PredefinedType-HIDDENLINE" x1="281.4421691894531" x2="271.6331481933594" y1="59.346134185791016" y2="58.48796844482422"/>
  <line class="GlobalId-3xVw80hi1FKv7$qswBecFH IfcAnnotation PredefinedType-HIDDENLINE" x1="281.4421691894531" x2="281.4421691894531" y1="64.01143646240234" y2="59.346134185791016"/>
  <line class="GlobalId-3xVw80hi1FKv7$qswBecFH IfcAnnotation PredefinedType-HIDDENLINE" x1="200.21914672851562" x2="194.83714294433594" y1="53.462703704833984" y2="51.769168853759766"/>
  <line class="GlobalId-3xVw80hi1FKv7$qswBecFH IfcAnnotation PredefinedType-HIDDENLINE" x1="205.66397094726562" x2="200.21914672851562" y1="54.94208908081055" y2="53.462703704833984"/>
  <line class="GlobalId-3xVw80hi1FKv7$qswBecFH IfcAnnotation PredefinedType-HIDDENLINE" x1="211.16299438476562" x2="205.66397094726562" y1="56.20501708984375" y2="54.94208908081055"/>
  <line class="GlobalId-3xVw80hi1FKv7$qswBecFH IfcAnnotation PredefinedType-HIDDENLINE" x1="216.70765686035156" x2="211.16299438476562" y1="57.24950408935547" y2="56.20501708984375"/>
  <line class="GlobalId-3xVw80hi1FKv7$qswBecFH IfcAnnotation PredefinedType-HIDDENLINE" x1="222.289306640625" x2="216.70765686035156" y1="58.073909759521484" y2="57.24950408935547"/>
  <line class="GlobalId-3xVw80hi1FKv7$qswBecFH IfcAnnotation PredefinedType-HIDDENLINE" x1="227.899169921875" x2="222.289306640625" y1="58.676963806152344" y2="58.073909759521484"/>
  <line class="GlobalId-3xVw80hi1FKv7$qswBecFH IfcAnnotation PredefinedType-HIDDENLINE" x1="233.5284881591797" x2="227.899169921875" y1="59.05772018432617" y2="58.676963806152344"/>
  <line class="GlobalId-3xVw80hi1FKv7$qswBecFH IfcAnnotation PredefinedType-HIDDENLINE" x1="239.1685028076172" x2="233.5284881591797" y1="59.215553283691406" y2="59.05772018432617"/>
  <line class="GlobalId-3xVw80hi1FKv7$qswBecFH IfcAnnotation PredefinedType-HIDDENLINE" x1="244.810302734375" x2="239.1685028076172" y1="59.15024948120117" y2="59.215553283691406"/>
  <line class="GlobalId-3xVw80hi1FKv7$qswBecFH IfcAnnotation PredefinedType-HIDDENLINE" x1="250.44508361816406" x2="244.810302734375" y1="58.86190414428711" y2="59.15024948120117"/>
  <line class="GlobalId-3xVw80hi1FKv7$qswBecFH IfcAnnotation PredefinedType-HIDDENLINE" x1="256.0640869140625" x2="250.44508361816406" y1="58.350975036621094" y2="58.86190414428711"/>
  <line class="GlobalId-3xVw80hi1FKv7$qswBecFH IfcAnnotation PredefinedType-HIDDENLINE" x1="261.6711730957031" x2="256.0640869140625" y1="57.61640548706055" y2="58.350975036621094"/>
  <line class="GlobalId-3xVw80hi1FKv7$qswBecFH IfcAnnotation PredefinedType-HIDDENLINE" x1="247.39088439941406" x2="241.39089965820312" y1="103.80691528320312" y2="103.80691528320312"/>
  <line class="GlobalId-3xVw80hi1FKv7$qswBecFH IfcAnnotation PredefinedType-HIDDENLINE" x1="247.39088439941406" x2="241.39089965820312" y1="113.80693054199219" y2="113.80693054199219"/>
  <path class="GlobalId-1l7tFGDJ53RfjD0MykZtBL IfcAnnotation PredefinedType-STEEL" d="M 260.0861668586731 82.41377615928651 L 259.61703062057495 82.6325252056122 L 259.52712297439575 82.12276244163515 L 260.0309491157532 82.10075640678407 L 260.0861668586731 82.41377615928651"/>
  <path class="GlobalId-1l7tFGDJ53RfjD0MykZtBL IfcAnnotation PredefinedType-STEEL" d="M 261.7087721824646 58.72386240959169 L 262.1052861213684 58.39112544059755 L 262.61507272720337 58.30124163627626 L 270.5846428871155 58.99849677085878 L 271.0710644721985 59.1755464076996 L 271.4038014411926 59.57206034660341 L 271.4936852455139 60.08184695243837 L 269.4890856742859 82.99432539939882 L 269.3120837211609 83.48074698448183 L 268.91552209854126 83.81348395347597 L 268.4057354927063 83.90336775779726 L 260.4361653327942 83.20611262321474 L 259.9497437477112 83.02906298637392 L 259.61703062057495 82.6325252056122 L 260.0861668586731 82.41377615928651 L 260.24664640426636 82.60503554344179 L 260.5453133583069 82.7137544155121 L 268.3837294578552 83.39954161643983 L 268.6967730522156 83.34434771537782 L 268.88805627822876 83.18384432792665 L 268.99672746658325 82.88520121574403 L 270.9898591041565 60.10382914543153 L 270.9346652030945 59.790833234787 L 270.7741618156433 59.59957385063173 L 270.4754948616028 59.490854978561416 L 262.63705492019653 58.80509161949159 L 262.324059009552 58.86026167869569 L 262.13279962539673 59.020765066146865 L 262.0240807533264 59.31943202018739 L 260.0309491157532 82.10075640678407 L 259.52712297439575 82.12276244163515 L 261.5317225456238 59.2102839946747 L 261.7087721824646 58.72386240959169"/>
  <path class="GlobalId-1l7tFGDJ53RfjD0MykZtBL IfcAnnotation PredefinedType-STEEL" d="M 244.39088106155396 90.80692076683046 L 245.39088010787964 90.93857550621034 L 245.55541276931763 90.32455229759218 L 245.90851068496704 89.97143054008485 L 246.5225338935852 89.80692172050477 L 267.2592282295227 89.80692172050477 L 267.87325143814087 89.97143054008485 L 268.2263493537903 90.32455229759218 L 268.39088201522827 90.93857550621034 L 268.39088201522827 126.6752555370331 L 268.2263493537903 127.28927874565126 L 267.87325143814087 127.64237666130067 L 267.2592282295227 127.80690932273866 L 246.5225338935852 127.80690932273866 L 246.39087915420532 128.80690836906433 L 267.3908829689026 128.80690836906433 L 268.39088201522827 128.53894972801208 L 269.1229224205017 127.80690932273866 L 269.39088106155396 126.80691027641298 L 269.39088106155396 90.80692076683046 L 269.1229224205017 89.80692172050477 L 268.39088201522827 89.07485747337343 L 267.3908829689026 88.80692267417909 L 246.39087915420532 88.80692267417909 L 245.39088010787964 89.07485747337343 L 244.6588397026062 89.80692172050477 L 244.39088106155396 90.80692076683046"/>
  <path class="GlobalId-1l7tFGDJ53RfjD0MykZtBL IfcAnnotation PredefinedType-STEEL" d="M 245.90851068496704 127.64237666130067 L 245.55541276931763 127.28927874565126 L 245.39088010787964 126.6752555370331 L 245.39088010787964 90.93857550621034 L 244.39088106155396 90.80692076683046 L 244.39088106155396 126.80691027641298 L 244.6588397026062 127.80690932273866 L 245.39088010787964 128.53894972801208 L 246.39087915420532 128.80690836906433 L 246.5225338935852 127.80690932273866 L 245.90851068496704 127.64237666130067"/>
  <path class="GlobalId-0E9vMwy0T3TuhegStdQb2P IfcAnnotation PredefinedType-TEXTLEADER" d="M 310.207736492157 47.00647139549257 L 300.7391333580017 47.00647139549257 L 279.387891292572 76.21968531608583"/>
  <text dominant-baseline="baseline" style="font-size: 0;" text-anchor="start" transform="rotate(0.0, 310.207763671875, 47.0064697265625)">
    <tspan class="GlobalId-0E9vMwy0T3TuhegStdQb2P IfcAnnotation PredefinedType-TEXTLEADER" dy="0em" x="310.207763671875" y="47.0064697265625">A FASCIA OF SORTS</tspan>
  </text>
  <path class="GlobalId-1TdTBs4Nr6XAmg5gR1a8M$ IfcAnnotation PredefinedType-TEXTLEADER" d="M 310.207736492157 58.692605733871474 L 300.7391333580017 58.692605733871474 L 300.7391333580017 99.80691218376161"/>
  <text dominant-baseline="baseline" style="font-size: 0;" text-anchor="start" transform="rotate(0.0, 310.207763671875, 58.692604064941406)">
    <tspan class="GlobalId-1TdTBs4Nr6XAmg5gR1a8M$ IfcAnnotation PredefinedType-TEXTLEADER" dy="0em" x="310.207763671875" y="58.692604064941406">YOU GUESSED IT</tspan>
    <tspan class="GlobalId-1TdTBs4Nr6XAmg5gR1a8M$ IfcAnnotation PredefinedType-TEXTLEADER" dy="1em" x="310.207763671875" y="58.692604064941406">A GUTTER</tspan>
  </text>
  <text dominant-baseline="baseline" style="font-size: 0;" text-anchor="start" transform="rotate(0.0, 202.75425720214844, 154.63865661621094)">
    <tspan class="GlobalId-0qe4ktC2P6PvINLhzzvTla IfcAnnotation PredefinedType-TEXT" dy="0em" x="202.75425720214844" y="154.63865661621094">INTERIOR</tspan>
  </text>
  <line class="GlobalId-2g2PxuZjj34BhBfv7hHY39 IfcAnnotation PredefinedType-BOUNDARY" x1="42.977630615234375" x2="242.04225158691406" y1="113.3681640625" y2="130.78407287597656"/>
  <line class="GlobalId-2g2PxuZjj34BhBfv7hHY39 IfcAnnotation PredefinedType-BOUNDARY" x1="242.04225158691406" x2="242.04225158691406" y1="130.78407287597656" y2="184.6379852294922"/>
  <path class="GlobalId-0TT_vuXXzClgkk51qzjo44 IfcAnnotation PredefinedType-TEXTLEADER" d="M 164.24100399017334 140.65743231773376 L 154.77240085601807 140.65743231773376 L 154.77240085601807 123.16001200675966"/>
  <text dominant-baseline="baseline" style="font-size: 0;" text-anchor="start" transform="rotate(0.0, 164.24099731445312, 140.65744018554688)">
    <tspan class="GlobalId-0TT_vuXXzClgkk51qzjo44 IfcAnnotation PredefinedType-TEXTLEADER" dy="0em" x="164.24099731445312" y="140.65744018554688">SOME BOUNDARY LINE TO</tspan>
    <tspan class="GlobalId-0TT_vuXXzClgkk51qzjo44 IfcAnnotation PredefinedType-TEXTLEADER" dy="1em" x="164.24099731445312" y="140.65744018554688">DEMONSTRATE LINE COLOURS</tspan>
  </text>
  <line class="GlobalId-18boI8qWn6vQuMTxr4qHtp IfcAnnotation PredefinedType-STUD" x1="72.6268081665039" x2="75.24148559570312" y1="71.79403686523438" y2="41.908199310302734"/>
  <line class="GlobalId-18boI8qWn6vQuMTxr4qHtp IfcAnnotation PredefinedType-STUD" x1="75.24148559570312" x2="65.27953338623047" y1="41.908199310302734" y2="41.03663635253906"/>
  <line class="GlobalId-18boI8qWn6vQuMTxr4qHtp IfcAnnotation PredefinedType-STUD" x1="82.58875274658203" x2="72.6268081665039" y1="72.66560363769531" y2="71.79403686523438"/>
  <line class="GlobalId-18boI8qWn6vQuMTxr4qHtp IfcAnnotation PredefinedType-STUD" x1="82.93738555908203" x2="82.58875274658203" y1="68.68081665039062" y2="72.66560363769531"/>
  <line class="GlobalId-18boI8qWn6vQuMTxr4qHtp IfcAnnotation PredefinedType-STUD" x1="65.27953338623047" x2="64.93091583251953" y1="41.03663635253906" y2="45.021419525146484"/>
  <line class="GlobalId-18boI8qWn6vQuMTxr4qHtp IfcAnnotation PredefinedType-STUD" x1="192.17018127441406" x2="194.78485107421875" y1="82.25272369384766" y2="52.36688232421875"/>
  <line class="GlobalId-18boI8qWn6vQuMTxr4qHtp IfcAnnotation PredefinedType-STUD" x1="194.78485107421875" x2="184.82290649414062" y1="52.36688232421875" y2="51.49531936645508"/>
  <line class="GlobalId-18boI8qWn6vQuMTxr4qHtp IfcAnnotation PredefinedType-STUD" x1="202.1321258544922" x2="192.17018127441406" y1="83.12428283691406" y2="82.25272369384766"/>
  <line class="GlobalId-18boI8qWn6vQuMTxr4qHtp IfcAnnotation PredefinedType-STUD" x1="202.48074340820312" x2="202.1321258544922" y1="79.1395263671875" y2="83.12428283691406"/>
  <line class="GlobalId-18boI8qWn6vQuMTxr4qHtp IfcAnnotation PredefinedType-STUD" x1="184.82290649414062" x2="184.4742889404297" y1="51.49531936645508" y2="55.480106353759766"/>
  <line class="GlobalId-18boI8qWn6vQuMTxr4qHtp IfcAnnotation PredefinedType-STUD" x1="280.7995300292969" x2="280.7995300292969" y1="59.80692672729492" y2="99.8069076538086"/>
  <line class="GlobalId-18boI8qWn6vQuMTxr4qHtp IfcAnnotation PredefinedType-STUD" x1="321.799560546875" x2="322.299560546875" y1="69.80691528320312" y2="69.6729507446289"/>
  <line class="GlobalId-18boI8qWn6vQuMTxr4qHtp IfcAnnotation PredefinedType-STUD" x1="322.299560546875" x2="322.66558837890625" y1="69.6729507446289" y2="69.30693054199219"/>
  <line class="GlobalId-18boI8qWn6vQuMTxr4qHtp IfcAnnotation PredefinedType-STUD" x1="322.66558837890625" x2="322.7995300292969" y1="69.30693054199219" y2="68.80691528320312"/>
  <line class="GlobalId-18boI8qWn6vQuMTxr4qHtp IfcAnnotation PredefinedType-STUD" x1="322.7995300292969" x2="322.66558837890625" y1="67.80691528320312" y2="67.30693054199219"/>
  <line class="GlobalId-18boI8qWn6vQuMTxr4qHtp IfcAnnotation PredefinedType-STUD" x1="322.66558837890625" x2="322.299560546875" y1="67.30693054199219" y2="66.94091033935547"/>
  <line class="GlobalId-18boI8qWn6vQuMTxr4qHtp IfcAnnotation PredefinedType-STUD" x1="322.299560546875" x2="321.799560546875" y1="66.94091033935547" y2="66.80691528320312"/>
  <line class="GlobalId-18boI8qWn6vQuMTxr4qHtp IfcAnnotation PredefinedType-STUD" x1="321.799560546875" x2="320.7995300292969" y1="69.80691528320312" y2="69.80691528320312"/>
  <line class="GlobalId-18boI8qWn6vQuMTxr4qHtp IfcAnnotation PredefinedType-STUD" x1="322.7995300292969" x2="322.7995300292969" y1="68.80691528320312" y2="67.80691528320312"/>
  <line class="GlobalId-18boI8qWn6vQuMTxr4qHtp IfcAnnotation PredefinedType-STUD" x1="321.799560546875" x2="320.7995300292969" y1="66.80691528320312" y2="66.80691528320312"/>
  <line class="GlobalId-18boI8qWn6vQuMTxr4qHtp IfcAnnotation PredefinedType-STUD" x1="310.799560546875" x2="313.3877258300781" y1="99.8069076538086" y2="99.4661865234375"/>
  <line class="GlobalId-18boI8qWn6vQuMTxr4qHtp IfcAnnotation PredefinedType-STUD" x1="313.3877258300781" x2="315.799560546875" y1="99.4661865234375" y2="98.4671859741211"/>
  <line class="GlobalId-18boI8qWn6vQuMTxr4qHtp IfcAnnotation PredefinedType-STUD" x1="315.799560546875" x2="317.87060546875" y1="98.4671859741211" y2="96.87798309326172"/>
  <line class="GlobalId-18boI8qWn6vQuMTxr4qHtp IfcAnnotation PredefinedType-STUD" x1="317.87060546875" x2="319.4598083496094" y1="96.87798309326172" y2="94.80691528320312"/>
  <line class="GlobalId-18boI8qWn6vQuMTxr4qHtp IfcAnnotation PredefinedType-STUD" x1="319.4598083496094" x2="320.45880126953125" y1="94.80691528320312" y2="92.3951187133789"/>
  <line class="GlobalId-18boI8qWn6vQuMTxr4qHtp IfcAnnotation PredefinedType-STUD" x1="320.45880126953125" x2="320.7995300292969" y1="92.3951187133789" y2="89.80692291259766"/>
  <line class="GlobalId-18boI8qWn6vQuMTxr4qHtp IfcAnnotation PredefinedType-STUD" x1="310.799560546875" x2="280.7995300292969" y1="99.8069076538086" y2="99.8069076538086"/>
  <line class="GlobalId-18boI8qWn6vQuMTxr4qHtp IfcAnnotation PredefinedType-STUD" x1="320.7995300292969" x2="320.7995300292969" y1="89.80692291259766" y2="69.80691528320312"/>
  <path class="GlobalId-3q6Gz9CF9COvggmNo0EyTp IfcAnnotation PredefinedType-TEXTLEADER" d="M 164.24100399017334 24.35062670707704 L 154.77240085601807 24.35062670707704 L 154.77240085601807 54.57323336601259"/>
  <text dominant-baseline="baseline" style="font-size: 0;" text-anchor="start" transform="rotate(0.0, 164.24099731445312, 24.35062599182129)">
    <tspan class="GlobalId-3q6Gz9CF9COvggmNo0EyTp IfcAnnotation PredefinedType-TEXTLEADER" dy="0em" x="164.24099731445312" y="24.35062599182129">SARKING I GUESS</tspan>
  </text>
  <path class="GlobalId-3PbBa9Z1DEePi3sTX4YWrD IfcAnnotation PredefinedType-WOOD" d="M 273.3909010887146 59.80692648887636 L 279.3908953666687 59.80692648887636 L 279.3908953666687 126.80691027641298 L 273.3909010887146 126.80691027641298 L 273.3909010887146 59.80692648887636"/>
  <path class="GlobalId-3KwpvXT1f1YhfVA_Ly$3IT IfcAnnotation PredefinedType-TEXTLEADER" d="M 279.1708827018738 24.35062670707704 L 269.7022795677185 24.35062670707704 L 269.7022795677185 49.886925458908095"/>
  <text dominant-baseline="baseline" style="font-size: 0;" text-anchor="start" transform="rotate(0.0, 279.1708984375, 24.35062599182129)">
    <tspan class="GlobalId-3KwpvXT1f1YhfVA_Ly$3IT IfcAnnotation PredefinedType-TEXTLEADER" dy="0em" x="279.1708984375" y="24.35062599182129">COMPRESSIBLE FILLER</tspan>
  </text>
  <path class="GlobalId-35VUcRDan6F9H9ff8Re$2A IfcAnnotation PredefinedType-TEXTLEADER" d="M 203.46728563308716 24.35062670707704 L 193.99867057800293 24.35062670707704 L 193.99867057800293 50.32299304008485"/>
  <text dominant-baseline="baseline" style="font-size: 0;" text-anchor="start" transform="rotate(0.0, 203.46726989746094, 24.35062599182129)">
    <tspan class="GlobalId-35VUcRDan6F9H9ff8Re$2A IfcAnnotation PredefinedType-TEXTLEADER" dy="0em" x="203.46726989746094" y="24.35062599182129">CLOSED CELL FOAM STRIP</tspan>
    <tspan class="GlobalId-35VUcRDan6F9H9ff8Re$2A IfcAnnotation PredefinedType-TEXTLEADER" dy="1em" x="203.46726989746094" y="24.35062599182129">FOR SEPARATION OF</tspan>
    <tspan class="GlobalId-35VUcRDan6F9H9ff8Re$2A IfcAnnotation PredefinedType-TEXTLEADER" dy="2em" x="203.46726989746094" y="24.35062599182129">DISSIMILAR MATERIALS</tspan>
  </text>
  <path class="GlobalId-3kPj2kLR90DO6YCmPaRSTZ IfcAnnotation PredefinedType-SEALANT" d="M 261.08707189559937 55.15611910820009 L 281.01097345352173 56.89922118186952 L 281.5338969230652 50.92206740379335 L 261.6099953651428 49.178941488266005 L 261.08707189559937 55.15611910820009"/>
  <path class="GlobalId-3eDzBs1sv1LAOwcJa6rnvc IfcAnnotation PredefinedType-BREAKLINE" d="M 50.79730749130249 129.32582640647888 L 55.76053857803345 72.59594047069551 L 60.72375774383545 15.866054534912122"/>
  <path class="GlobalId-3eDzBs1sv1LAOwcJa6rnvc IfcAnnotation PredefinedType-BREAKLINE" d="M 217.69437789916992 159.68809866905212 L 274.6409595012665 159.68808674812317 L 331.58754110336304 159.6880748271942"/>
</svg>
