<svg xmlns="http://www.w3.org/2000/svg" xmlns:xlink="http://www.w3.org/1999/xlink" xmlns:ifc="http://www.ifcopenshell.org/ns" width="141.667mm" height="141.667mm" viewBox="0 0 141.667 141.667">
    <defs>
        <marker id="arrowend" markerWidth="10" markerHeight="7" refX="10" refY="3.5" orient="auto">
          <polygon points="0 0, 10 3.5, 0 7"/>
        </marker>
        <marker id="arrowstart" markerWidth="10" markerHeight="7" refX="0" refY="3.5" orient="auto">
          <polygon points="10 0, 0 3.5, 10 7"/>
        </marker>
    </defs>
    <g ifc:name="Elevation SOUTH ELEVATION" class="section" ifc:plane="[[1.000000,0.000000,0.000000,0.000000],[0.000000,-0.000000,-1.000000,-0.744770],[0.000000,1.000000,-0.000000,-0.000000],[0.000000,0.000000,0.000000,1.000000]]" ifc:matrix3="[[20.833334,0.000000,32.733364],[0.000000,20.833334,89.883365],[0.000000,0.000000,1.000000]]">
        <g class="projection">
            <path d="M107.921,89.8834 L34.8167,89.8834"/>
            <path d="M107.921,89.8834 L107.921,89.8834"/>
            <path d="M110.004,89.8834 L107.921,89.8834"/>
            <path d="M34.8167,89.8834 L32.7334,89.8834"/>
            <path d="M34.8167,89.8834 L34.8167,89.8834"/>
            <path d="M32.7334,27.3834 L32.7334,27.3834"/>
            <path d="M110.004,89.8834 L110.004,89.8834"/>
            <path d="M32.7334,89.8834 L32.7334,27.3834"/>
            <path d="M110.004,89.8834 L110.004,27.3834"/>
            <path d="M110.004,27.3834 L32.7334,27.3834"/>
            <path d="M82.2708,89.8834 L32.7334,89.8834"/>
            <path d="M82.2708,45.1959 L82.2708,89.8834"/>
            <path d="M103.312,45.1959 L82.2708,45.1959"/>
            <path d="M103.312,89.8834 L103.312,45.1959"/>
            <path d="M110.004,89.8834 L103.312,89.8834"/>
            <path d="M32.7334,89.8834 L32.7334,27.3834"/>
            <path d="M102.167,89.4078 L83.4166,46.6089"/>
            <path d="M102.167,89.8834 L83.4166,89.8834"/>
            <path d="M82.2708,45.1959 L102.167,46.3417"/>
            <path d="M102.167,46.3417 L83.4166,46.3417"/>
            <path d="M83.4166,89.8834 L83.4166,46.3417"/>
            <path d="M82.2708,45.1959 L83.4166,46.3417"/>
            <path d="M82.2708,89.8834 L83.4166,46.3417"/>
            <path d="M82.2708,89.8834 L82.2708,45.1959"/>
            <path d="M103.312,45.1959 L102.167,46.3417"/>
            <path d="M103.312,89.8834 L103.312,45.1959"/>
            <path d="M102.167,89.8834 L102.167,46.3417"/>
            <path d="M103.312,89.8834 L102.167,46.3417"/>
            <path d="M103.312,45.1959 L82.2708,45.1959"/>
            <path d="M83.4166,89.8834 L82.2708,89.8834"/>
            <path d="M102.167,89.8834 L103.312,89.8834"/>
        </g>
    <g id="product-96323428-25ce-4b7e-bd5d-21788ddedd1a-body" class="IfcDoor cut" ifc:name="Door" ifc:guid="2MCZGe9SvBVhrT8NYDtjqQ">
"/&gt;
"/&gt;
        </g>
        <g id="product-696c5414-800c-4bf0-8f73-3c0595ad034c-body" class="IfcWall cut material-poche" ifc:name="Wall" ifc:guid="1fR5GKW0nBy8zpF0MLhGDC">
"/&gt;
        </g>
        <g id="product-abd6ec8f-620a-41ec-b0d3-a39f73b384c3-body" class="IfcWall cut material-poche" ifc:name="Wall" ifc:guid="2hrkoFOWf1xB3JevzpiuJ3">
"/&gt;
        </g>
        <g id="product-ce514e46-f96c-4f6f-9eb8-bc5bce0d530f-body" class="IfcWall cut material-poche" ifc:name="Wall" ifc:guid="3EKKv6_MnFRvwul5lE3LCF">
"/&gt;
        </g>
        <g id="product-b20dffc4-a61c-4dcc-b82d-d68c96649796-body" class="IfcWall cut material-poche" ifc:name="Wall" ifc:guid="2o3V$4fXnDpBWjreoMP9UM">
"/&gt;
        </g>
        <g id="product-3bd83fa3-56f0-4757-aa80-7ef690b676e0-body" class="IfcWall cut material-poche" ifc:name="Wall" ifc:guid="0xs3_ZLl17Lwg0VlQGjdRW">
"/&gt;
        </g>
        </g>
</svg>