<?xml version="1.0" encoding="utf-8" ?>
<svg xmlns="http://www.w3.org/2000/svg" xmlns:ev="http://www.w3.org/2001/xml-events" xmlns:ifc="http://www.ifcopenshell.org/ns" xmlns:xlink="http://www.w3.org/1999/xlink" baseProfile="full" data-scale="1:5" height="105.60065460205077mm" id="root" version="1.1" viewBox="0 0 160.00099182128906 105.60065460205077" width="160.00099182128906mm">
  <defs/>
  <text dominant-baseline="baseline" style="font-size: 0;" text-anchor="start" transform="rotate(0.0, 7.41400146484375, 62.10849380493164)">
    <tspan class="GlobalId-2SiFkPi7n64wQj_JdHO6Mk IfcAnnotation PredefinedType-TEXT" dy="0em" x="7.41400146484375" y="62.10849380493164">COMMON AREA</tspan>
  </text>
  <line class="GlobalId-38MncDd6P5RxKFArxqfvkH IfcAnnotation PredefinedType-DIMENSION" x1="42.77734375" x2="45.377342224121094" y1="18.55961036682129" y2="18.55961036682129"/>
  <text class="DIMENSION" text-anchor="middle" transform="rotate(0.0 48.377342224121094 17.55961036682129)" x="48.377342224121094" y="17.55961036682129">0.013</text>
  <line class="GlobalId-38MncDd6P5RxKFArxqfvkH IfcAnnotation PredefinedType-DIMENSION" x1="45.377342224121094" x2="58.177345275878906" y1="18.55961036682129" y2="18.55961036682129"/>
  <text class="DIMENSION" text-anchor="middle" transform="rotate(0.0 51.77734375 17.55961036682129)" x="51.77734375" y="17.55961036682129">0.064</text>
  <line class="GlobalId-38MncDd6P5RxKFArxqfvkH IfcAnnotation PredefinedType-DIMENSION" x1="58.177345275878906" x2="88.1773452758789" y1="18.55961036682129" y2="18.55961036682129"/>
  <text class="DIMENSION" text-anchor="middle" transform="rotate(0.0 73.17735290527344 17.55961036682129)" x="73.17735290527344" y="17.55961036682129">0.150</text>
  <line class="GlobalId-38MncDd6P5RxKFArxqfvkH IfcAnnotation PredefinedType-DIMENSION" x1="91.3773422241211" x2="96.57735443115234" y1="18.55961036682129" y2="18.55961036682129"/>
  <text class="DIMENSION" text-anchor="middle" transform="rotate(0.0 93.97734069824219 17.55961036682129)" x="93.97734069824219" y="17.55961036682129">0.026</text>
  <line class="GlobalId-38MncDd6P5RxKFArxqfvkH IfcAnnotation PredefinedType-DIMENSION" x1="42.77734375" x2="96.57735443115234" y1="8.559608459472656" y2="8.559608459472656"/>
  <text class="DIMENSION" text-anchor="middle" transform="rotate(0.0 69.67735290527344 7.559608459472656)" x="69.67735290527344" y="7.559608459472656">0.269</text>
  <line class="GlobalId-38MncDd6P5RxKFArxqfvkH IfcAnnotation PredefinedType-DIMENSION" x1="88.1773452758789" x2="91.3773422241211" y1="13.559603691101074" y2="13.559603691101074"/>
  <text class="DIMENSION" text-anchor="middle" transform="rotate(0.0 94.3773422241211 12.559603691101074)" x="94.3773422241211" y="12.559603691101074">0.016</text>
  <line class="GlobalId-38MncDd6P5RxKFArxqfvkH IfcAnnotation PredefinedType-DIMENSION" x1="38.77734375" x2="38.77734375" y1="32.55959701538086" y2="28.559595108032227"/>
  <text class="DIMENSION" text-anchor="middle" transform="rotate(-90.00000250447816 37.77734375 25.559595108032227)" x="37.77734375" y="25.559595108032227">0.020</text>
  <line class="GlobalId-0sO6kFgh5498pn5g1xOiO1 IfcAnnotation PredefinedType-STUD" x1="58.177345275878906" x2="45.377342224121094" y1="85.55960083007812" y2="85.55960083007812"/>
  <line class="GlobalId-0sO6kFgh5498pn5g1xOiO1 IfcAnnotation PredefinedType-STUD" x1="45.377342224121094" x2="45.377342224121094" y1="85.55960083007812" y2="78.55960083007812"/>
  <line class="GlobalId-0sO6kFgh5498pn5g1xOiO1 IfcAnnotation PredefinedType-STUD" x1="58.177345275878906" x2="58.177345275878906" y1="85.55960083007812" y2="78.55960083007812"/>
  <line class="GlobalId-0sO6kFgh5498pn5g1xOiO1 IfcAnnotation PredefinedType-STUD" x1="45.377342224121094" x2="58.177345275878906" y1="28.559595108032227" y2="28.559600830078125"/>
  <line class="GlobalId-0sO6kFgh5498pn5g1xOiO1 IfcAnnotation PredefinedType-STUD" x1="58.177345275878906" x2="58.177345275878906" y1="28.559600830078125" y2="35.559600830078125"/>
  <line class="GlobalId-0sO6kFgh5498pn5g1xOiO1 IfcAnnotation PredefinedType-STUD" x1="45.377342224121094" x2="45.377342224121094" y1="28.559595108032227" y2="35.559600830078125"/>
  <line class="GlobalId-0sO6kFgh5498pn5g1xOiO1 IfcAnnotation PredefinedType-STUD" x1="88.1773452758789" x2="91.3773422241211" y1="31.759601593017578" y2="31.759601593017578"/>
  <line class="GlobalId-0sO6kFgh5498pn5g1xOiO1 IfcAnnotation PredefinedType-STUD" x1="88.1773452758789" x2="88.1773452758789" y1="28.559595108032227" y2="31.759601593017578"/>
  <line class="GlobalId-0sO6kFgh5498pn5g1xOiO1 IfcAnnotation PredefinedType-STUD" x1="91.3773422241211" x2="91.3773422241211" y1="31.759601593017578" y2="39.75960159301758"/>
  <line class="GlobalId-0sO6kFgh5498pn5g1xOiO1 IfcAnnotation PredefinedType-STUD" x1="91.3773422241211" x2="88.1773452758789" y1="39.75960159301758" y2="39.75960159301758"/>
  <line class="GlobalId-0sO6kFgh5498pn5g1xOiO1 IfcAnnotation PredefinedType-STUD" x1="88.1773452758789" x2="88.1773452758789" y1="39.75960159301758" y2="42.95960235595703"/>
  <line class="GlobalId-0sO6kFgh5498pn5g1xOiO1 IfcAnnotation PredefinedType-STUD" x1="88.1773452758789" x2="91.3773422241211" y1="71.75959777832031" y2="71.75959777832031"/>
  <line class="GlobalId-0sO6kFgh5498pn5g1xOiO1 IfcAnnotation PredefinedType-STUD" x1="88.1773452758789" x2="88.1773452758789" y1="68.55960083007812" y2="71.75959777832031"/>
  <line class="GlobalId-0sO6kFgh5498pn5g1xOiO1 IfcAnnotation PredefinedType-STUD" x1="91.3773422241211" x2="91.3773422241211" y1="71.75959777832031" y2="79.75960540771484"/>
  <line class="GlobalId-0sO6kFgh5498pn5g1xOiO1 IfcAnnotation PredefinedType-STUD" x1="91.3773422241211" x2="88.1773452758789" y1="79.75960540771484" y2="79.75960540771484"/>
  <line class="GlobalId-0sO6kFgh5498pn5g1xOiO1 IfcAnnotation PredefinedType-STUD" x1="88.1773452758789" x2="88.1773452758789" y1="79.75960540771484" y2="82.95960235595703"/>
  <line class="GlobalId-3ylT9vqO56RfcCP3xaVxUA IfcAnnotation PredefinedType-CUTLINE" x1="104.57734680175781" x2="34.77734375" y1="85.55960083007812" y2="85.55960083007812"/>
  <line class="GlobalId-3ylT9vqO56RfcCP3xaVxUA IfcAnnotation PredefinedType-CUTLINE" x1="104.57734680175781" x2="34.77734375" y1="28.559598922729492" y2="28.559598922729492"/>
  <path class="GlobalId-3eFalNV819hfUuBsiKaygy IfcAnnotation PredefinedType-TEXTLEADER" d="M 106.57735466957092 42.96466237306594 L 88.17734718322754 42.96466237306594"/>
  <text dominant-baseline="baseline" style="font-size: 0;" text-anchor="start" transform="rotate(0.0, 106.57734680175781, 42.96466064453125)">
    <tspan class="GlobalId-3eFalNV819hfUuBsiKaygy IfcAnnotation PredefinedType-TEXTLEADER" dy="0em" x="106.57734680175781" y="42.96466064453125">CONCRETE WALL</tspan>
  </text>
  <text dominant-baseline="baseline" style="font-size: 0;" text-anchor="start" transform="rotate(0.0, 106.57734680175781, 62.10849380493164)">
    <tspan class="GlobalId-0b7V9kNIv41hv_9CR6URLg IfcAnnotation PredefinedType-TEXT" dy="0em" x="106.57734680175781" y="62.10849380493164">APARTMENT</tspan>
  </text>
  <path class="GlobalId-3PsgTdJwj8oQT8chH57N7a IfcAnnotation PredefinedType-TEXTLEADER" d="M 106.57735466957092 81.55960416793823 L 58.177344501018524 81.55960416793823"/>
  <text dominant-baseline="baseline" style="font-size: 0;" text-anchor="start" transform="rotate(0.0, 106.57734680175781, 81.55960083007812)">
    <tspan class="GlobalId-3PsgTdJwj8oQT8chH57N7a IfcAnnotation PredefinedType-TEXTLEADER" dy="0em" x="106.57734680175781" y="81.55960083007812">64mm METAL STUD FRAME</tspan>
  </text>
  <path class="GlobalId-1fYv_617XDmPO_ajEwO77o IfcAnnotation PredefinedType-TEXTLEADER" d="M 106.57735466957092 30.964661896228783 L 58.177345991134644 30.964661896228783"/>
  <text dominant-baseline="baseline" style="font-size: 0;" text-anchor="start" transform="rotate(0.0, 106.57734680175781, 30.96466064453125)">
    <tspan class="GlobalId-1fYv_617XDmPO_ajEwO77o IfcAnnotation PredefinedType-TEXTLEADER" dy="0em" x="106.57734680175781" y="30.96466064453125">DEFLECTION HEAD</tspan>
  </text>
  <path class="GlobalId-1QDZRh1kj6fQap181U4v7L IfcAnnotation PredefinedType-TEXTLEADER" d="M 106.57735466957092 72.55960232019424 L 96.57735228538513 72.55960232019424"/>
  <text dominant-baseline="baseline" style="font-size: 0;" text-anchor="start" transform="rotate(0.0, 106.57734680175781, 72.55960083007812)">
    <tspan class="GlobalId-1QDZRh1kj6fQap181U4v7L IfcAnnotation PredefinedType-TEXTLEADER" dy="0em" x="106.57734680175781" y="72.55960083007812">REFER TO NOTE</tspan>
    <tspan class="GlobalId-1QDZRh1kj6fQap181U4v7L IfcAnnotation PredefinedType-TEXTLEADER" dy="1em" x="106.57734680175781" y="72.55960083007812">FOR WET AREA APPLICATIONS</tspan>
  </text>
  <path class="GlobalId-33qFyT2M5CvO4bGQqHgUq7 IfcAnnotation PredefinedType-HATCH3" d="M 104.57735657691956 28.55959659814834 L 34.77734327316284 28.55959659814834 L 34.77734327316284 24.559604883193963 L 104.57735657691956 24.559604883193963 L 104.57735657691956 28.55959659814834"/>
  <path class="GlobalId-33qFyT2M5CvO4bGQqHgUq7 IfcAnnotation PredefinedType-HATCH3" d="M 34.77734327316284 85.5596033334732 L 104.57735657691956 85.55960631370544 L 104.57735657691956 95.55960273742676 L 34.77734327316284 95.55960273742676 L 34.77734327316284 85.5596033334732"/>
  <path class="GlobalId-2rU2ZGq5P1PhP50OSVavCz IfcAnnotation PredefinedType-PLASTERBOARD" d="M 93.9773440361023 83.5596022605896 L 91.37734174728394 83.5596022605896 L 91.37734174728394 32.55959874391555 L 93.9773440361023 32.55959874391555 L 93.9773440361023 83.5596022605896"/>
  <path class="GlobalId-2rU2ZGq5P1PhP50OSVavCz IfcAnnotation PredefinedType-PLASTERBOARD" d="M 45.37734389305115 83.5596022605896 L 42.77734458446503 83.5596022605896 L 42.77734458446503 32.55959874391555 L 45.37734389305115 32.55959874391555 L 45.37734389305115 83.5596022605896"/>
  <path class="GlobalId-2rU2ZGq5P1PhP50OSVavCz IfcAnnotation PredefinedType-PLASTERBOARD" d="M 96.57735228538513 83.5596022605896 L 93.9773440361023 83.5596022605896 L 93.9773440361023 32.55959874391555 L 96.57735228538513 32.55959874391555 L 96.57735228538513 83.5596022605896"/>
  <path class="GlobalId-3Mmmk_LXnA1BhkYJNHHemO IfcAnnotation PredefinedType-BREAKLINE" d="M 38.777345418930054 64.31297785043716 L 69.67735290527344 64.3129808306694 L 100.57736039161682 64.31298381090164"/>
  <path class="GlobalId-3Mmmk_LXnA1BhkYJNHHemO IfcAnnotation PredefinedType-BREAKLINE" d="M 100.57736039161682 64.31298381090164 L 100.57736039161682 61.83468079566955 L 100.57736039161682 59.35637778043746"/>
  <path class="GlobalId-3Mmmk_LXnA1BhkYJNHHemO IfcAnnotation PredefinedType-BREAKLINE" d="M 100.57736039161682 59.35637778043746 L 69.67735290527344 59.35637629032134 L 38.777345418930054 59.356374800205224"/>
  <path class="GlobalId-3Mmmk_LXnA1BhkYJNHHemO IfcAnnotation PredefinedType-BREAKLINE" d="M 38.777345418930054 59.356374800205224 L 38.777345418930054 61.83467632532119 L 38.777345418930054 64.31297785043716"/>
  <path class="GlobalId-3Mmmk_LXnA1BhkYJNHHemO IfcAnnotation PredefinedType-BREAKLINE" d="M 38.777345418930054 56.641642510890954 L 69.67735290527344 56.64164847135543 L 100.57736039161682 56.64165443181991"/>
  <path class="GlobalId-3Mmmk_LXnA1BhkYJNHHemO IfcAnnotation PredefinedType-BREAKLINE" d="M 38.777345418930054 60.477308690547936 L 38.777345418930054 58.559475600719445 L 38.777345418930054 56.641642510890954"/>
  <path class="GlobalId-3Mmmk_LXnA1BhkYJNHHemO IfcAnnotation PredefinedType-BREAKLINE" d="M 100.57736039161682 60.47731763124465 L 69.67735290527344 60.477313160896294 L 38.777345418930054 60.477308690547936"/>
  <path class="GlobalId-3Mmmk_LXnA1BhkYJNHHemO IfcAnnotation PredefinedType-BREAKLINE" d="M 100.57736039161682 56.64165443181991 L 100.57736039161682 58.55948603153228 L 100.57736039161682 60.47731763124465"/>
  <path class="GlobalId-3RQm56lCDEhuzJvKnloRnn IfcAnnotation PredefinedType-TEXTLEADER" d="M 106.57735466957092 36.96466213464736 L 91.37734174728394 36.96466213464736"/>
  <text dominant-baseline="baseline" style="font-size: 0;" text-anchor="start" transform="rotate(0.0, 106.57734680175781, 36.96466064453125)">
    <tspan class="GlobalId-3RQm56lCDEhuzJvKnloRnn IfcAnnotation PredefinedType-TEXTLEADER" dy="0em" x="106.57734680175781" y="36.96466064453125">16mm FURRING CHANNEL ZONE</tspan>
  </text>
  <marker id="batting-1qGAxdVGTDdxagcL6k6mBK" markerHeight="15.0" markerUnits="userSpaceOnUse" markerWidth="6.0" orient="auto" refX="0" refY="7.5">
    <path d="M 0 3.0 A 3.0 3.0 0 0 1 6.0 3.0 L 3.0 12.0 M 0 3.0 L 3.0 12.0 A 3.0 3.0 0 0 0 6.0 15.0 M 3.0 12.0 A 3.0 3.0 0 0 1 0 15.0" style="fill: none; stroke:black; stroke-width:0.18"/>
  </marker>
  <marker id="batting-end-1qGAxdVGTDdxagcL6k6mBK" markerHeight="15.0" markerUnits="userSpaceOnUse" markerWidth="4.0" orient="auto" refX="0" refY="7.5">
    <path d="M 0 3.0 A 3.0 3.0 0 0 1 6.0 3.0 L 3.0 12.0 M 0 3.0 L 3.0 12.0 A 3.0 3.0 0 0 0 6.0 15.0 M 3.0 12.0 A 3.0 3.0 0 0 1 0 15.0" style="fill: none; stroke:black; stroke-width:0.18"/>
  </marker>
  <polyline class="GlobalId-1qGAxdVGTDdxagcL6k6mBK IfcAnnotation PredefinedType-BATTING" points="51.77734375,81.55960083007812" style="marker-start: url(#batting-1qGAxdVGTDdxagcL6k6mBK); marker-mid: url(#batting-1qGAxdVGTDdxagcL6k6mBK); stroke: none; marker-end: url(#batting-end-1qGAxdVGTDdxagcL6k6mBK); stroke: none; "/>
  <line class="GlobalId-2qExl3Prf2NgwU7SxuILKd IfcAnnotation PredefinedType-MISC" x1="45.377342224121094" x2="58.177345275878906" y1="32.55959701538086" y2="32.55959701538086"/>
  <line class="GlobalId-3hJ$IFauz5sAqeL2eHYKsj IfcAnnotation PredefinedType-HIDDENLINE" x1="56.17734146118164" x2="56.17734146118164" y1="85.55960083007812" y2="32.55959701538086"/>
  <line class="GlobalId-3hJ$IFauz5sAqeL2eHYKsj IfcAnnotation PredefinedType-HIDDENLINE" x1="47.377342224121094" x2="47.377342224121094" y1="85.55960083007812" y2="32.55959701538086"/>
  <line class="GlobalId-3hJ$IFauz5sAqeL2eHYKsj IfcAnnotation PredefinedType-HIDDENLINE" x1="51.77734375" x2="51.77734375" y1="30.559598922729492" y2="24.55960464477539"/>
  <path class="GlobalId-3FsQY75_PCBRpVZqiTxOnb IfcAnnotation PredefinedType-TEXTLEADER" d="M 106.57735466957092 48.96466261148452 L 45.37734389305115 48.96466261148452"/>
  <text dominant-baseline="baseline" style="font-size: 0;" text-anchor="start" transform="rotate(0.0, 106.57734680175781, 48.96466064453125)">
    <tspan class="GlobalId-3FsQY75_PCBRpVZqiTxOnb IfcAnnotation PredefinedType-TEXTLEADER" dy="0em" x="106.57734680175781" y="48.96466064453125">16mm PLASTERBOARD</tspan>
  </text>
  <path class="GlobalId-2jHda62QnEiRj5qvosrdC_ IfcAnnotation PredefinedType-CONCRETE" d="M 88.1773442029953 85.55960035324097 L 58.177345991134644 85.55960035324097 L 58.177345991134644 28.55959659814834 L 88.1773442029953 28.55959659814834 L 88.1773442029953 85.55960035324097"/>
  <path class="GlobalId-1gIJGWoiz0UO_pa$cEGNq2 IfcAnnotation PredefinedType-SEALANT" d="M 91.37734174728394 28.55959659814834 L 96.57735228538513 28.55959659814834 L 96.57735228538513 32.55959874391555 L 91.37734174728394 32.55959874391555 L 91.37734174728394 28.55959659814834"/>
  <path class="GlobalId-1gIJGWoiz0UO_pa$cEGNq2 IfcAnnotation PredefinedType-SEALANT" d="M 45.37734389305115 85.5596033334732 L 42.77734458446503 85.5596033334732 L 42.77734458446503 83.5596022605896 L 45.37734389305115 83.5596022605896 L 45.37734389305115 85.5596033334732"/>
  <path class="GlobalId-1gIJGWoiz0UO_pa$cEGNq2 IfcAnnotation PredefinedType-SEALANT" d="M 96.57735228538513 85.55960631370544 L 91.37734174728394 85.55960631370544 L 91.37734174728394 83.5596022605896 L 96.57735228538513 83.5596022605896 L 96.57735228538513 85.55960631370544"/>
  <path class="GlobalId-1gIJGWoiz0UO_pa$cEGNq2 IfcAnnotation PredefinedType-SEALANT" d="M 42.77734458446503 28.55959659814834 L 45.37734389305115 28.55959659814834 L 45.37734389305115 32.55959874391555 L 42.77734458446503 32.55959874391555 L 42.77734458446503 28.55959659814834"/>
  <path class="GlobalId-3kFzdBdvHFSh85Eo44mzCX IfcAnnotation PredefinedType-WOOD" d="M 41.777342557907104 69.5596051812172 L 42.77734458446503 69.5596051812172 L 42.77734458446503 81.55960416793823 L 40.77734351158142 81.55960416793823 L 40.77734351158142 71.55960476398468 L 41.777342557907104 69.5596051812172"/>
  <path class="GlobalId-3kFzdBdvHFSh85Eo44mzCX IfcAnnotation PredefinedType-WOOD" d="M 96.57735228538513 69.5596051812172 L 96.57735228538513 81.55960416793823 L 98.5773503780365 81.55960416793823 L 98.5773503780365 71.55960476398468 L 97.57735133171082 69.5596051812172 L 96.57735228538513 69.5596051812172"/>
  <path class="GlobalId-1vnKaLPrz2nQwmL2np34Cd IfcAnnotation PredefinedType-HATCH1" d="M 42.77734458446503 81.55960416793823 L 34.77734327316284 81.55960416793823 L 34.77734327316284 85.5596033334732 L 42.77734458446503 85.55960631370544 L 42.77734458446503 81.55960416793823"/>
  <path class="GlobalId-1vnKaLPrz2nQwmL2np34Cd IfcAnnotation PredefinedType-HATCH1" d="M 104.57735657691956 81.55960416793823 L 96.57735228538513 81.55960416793823 L 96.57735228538513 85.5596033334732 L 104.57735657691956 85.55960631370544 L 104.57735657691956 81.55960416793823"/>
  <path class="GlobalId-2qa2Q169j0hPPh8Gk4t5f3 IfcAnnotation PredefinedType-TEXTLEADER" d="M 106.57735466957092 54.9646628499031 L 96.57735228538513 54.9646628499031"/>
  <text dominant-baseline="baseline" style="font-size: 0;" text-anchor="start" transform="rotate(0.0, 106.57734680175781, 54.96466064453125)">
    <tspan class="GlobalId-2qa2Q169j0hPPh8Gk4t5f3 IfcAnnotation PredefinedType-TEXTLEADER" dy="0em" x="106.57734680175781" y="54.96466064453125">2x13mm PLASTERBOARD</tspan>
  </text>
</svg>
