<?xml version="1.0" encoding="UTF-8" standalone="no"?>
<svg
   id="root"
   version="1.1"
   width="863.59998mm"
   height="558.79999mm"
   viewBox="0 0 863.59998 558.79999"
   sodipodi:docname="A00 - UNTITLED.svg"
   inkscape:version="1.2 (dc2aedaf03, 2022-05-15)"
   xmlns:inkscape="http://www.inkscape.org/namespaces/inkscape"
   xmlns:sodipodi="http://sodipodi.sourceforge.net/DTD/sodipodi-0.dtd"
   xmlns:xlink="http://www.w3.org/1999/xlink"
   xmlns="http://www.w3.org/2000/svg"
   xmlns:svg="http://www.w3.org/2000/svg">
  <defs
     id="defs8810" />
  <sodipodi:namedview
     id="namedview8808"
     pagecolor="#505050"
     bordercolor="#ffffff"
     borderopacity="1"
     inkscape:showpageshadow="0"
     inkscape:pageopacity="0"
     inkscape:pagecheckerboard="1"
     inkscape:deskcolor="#505050"
     inkscape:document-units="mm"
     showgrid="false"
     inkscape:zoom="0.37071079"
     inkscape:cx="1633.3487"
     inkscape:cy="1054.7305"
     inkscape:window-width="1920"
     inkscape:window-height="1017"
     inkscape:window-x="-8"
     inkscape:window-y="-8"
     inkscape:window-maximized="1"
     inkscape:current-layer="root" />
  <g
     data-type="titleblock"
     id="g8793">
    <image
       xlink:href="../templates/titleblocks/22x34.svg"
       x="0"
       y="0"
       width="863.59998"
       height="558.79999"
       id="image8791" />
  </g>
  <g
     data-type="drawing"
     data-id="2646"
     data-drawing="2Zrn6h8aXB$gWxkl5Yg06t"
     id="g8799">
    <image
       data-type="foreground"
       xlink:href="..%5Cdiagrams%5CMY%20STOREY%20PLAN.svg"
       x="30"
       y="30"
       width="187.50007947285968"
       height="94.87504021326701"
       id="image8795" />
    <image
       data-type="view-title"
       xlink:href="../templates/view-title.svg"
       x="30"
       y="129.87504021326703"
       width="50.222462"
       height="10.0"
       id="image8797" />
  </g>
  <g
     data-type="drawing"
     data-id="2926"
     data-drawing="3zYSvdiaX41hMn8$HrUpee"
     id="g8805"
     transform="translate(26.407603,144.88495)">
    <image
       data-type="foreground"
       xlink:href="..%5Cdiagrams%5CSOUTH%20ELEVATION.svg"
       x="30"
       y="30"
       width="141.66672"
       height="141.66672"
       id="image8801" />
    <image
       data-type="view-title"
       xlink:href="../templates/view-title.svg"
       x="30"
       y="176.66672"
       width="50.222462"
       height="10"
       id="image8803" />
  </g>
</svg>
